2021-01-27 14:38:04.333 +05:00 [INF] Starting Api
2021-01-27 15:29:13.699 +05:00 [INF] Starting Api
2021-01-27 15:31:39.236 +05:00 [INF] Starting Api
2021-01-27 15:50:56.674 +05:00 [INF] Starting Api
2021-01-27 17:25:06.531 +05:00 [INF] Starting Api
2021-01-27 17:41:54.966 +05:00 [INF] Starting Api
2021-01-27 17:47:12.657 +05:00 [INF] Starting Api
2021-01-27 18:04:09.584 +05:00 [INF] Starting Api
2021-01-27 18:14:52.647 +05:00 [INF] Starting Api
2021-01-27 18:21:37.190 +05:00 [INF] Starting Api
2021-01-27 18:23:37.862 +05:00 [INF] Starting Api
2021-01-27 18:27:33.638 +05:00 [INF] Starting Api
2021-01-27 19:41:55.475 +05:00 [INF] Starting Api
2021-01-27 19:49:17.195 +05:00 [INF] Starting Api
2021-01-27 19:53:57.833 +05:00 [INF] Starting Api
2021-01-27 19:56:09.600 +05:00 [INF] Starting Api
2021-01-27 20:04:31.035 +05:00 [INF] Starting Api
2021-01-27 20:07:24.268 +05:00 [INF] Starting Api
2021-01-27 20:08:10.473 +05:00 [INF] Starting Api
